{
    "cuerpos": [{"nombre": "Sol", 
                       "masa": 1.9891E30, 
                       "posicion": [0, 0, 0], 
                       "velocidad": [0, 0, 0]
                     }, 
		    {"nombre": "Mercurio", 
                       "masa": 3.30E23, 
                       "posicion": [0, 5.84E10, 0], 
                       "velocidad": [0, 4.736E4, 0]
                     },
		    {"nombre": "Venus", 
                       "masa": 4.87E24, 
                       "posicion": [0, 1.09E11, 0], 
                       "velocidad": [0, 3.502E4, 0]
                     },
                    {"nombre": "Tierra", 
                       "masa": 5.972E24, 
                       "posicion": [0, 1.49E11, 0], 
                       "velocidad": [0, 2.978E4, 0]
                     },
                    {"nombre": "Marte", 
                       "masa": 6.42E23, 
                       "posicion": [0, 2.28E11, 0], 
                       "velocidad": [0, 2.408E4, 0]
                     },
           	    {"nombre": "Vesta", 
	               "masa": 2.592E20, 
	               "posicion": [0, 3.53E11, 0], 
	               "velocidad": [0, 1.934E4, 0]
	             },
                    {"nombre": "Iris", 
	               "masa": 1.62E19, 
	               "posicion": [0, 3.57E11, 0], 
	               "velocidad": [0, 1.903E4, 0]
	             },
           	    {"nombre": "Metis", 
	               "masa": 1.47E19, 
	               "posicion": [0, 3.58E11, 0], 
	               "velocidad": [0, 1.921E4, 0]
	             },
           	    {"nombre": "Amphitrite", 
	               "masa": 1.18E19, 
	               "posicion": [0, 3.82E11, 0], 
	               "velocidad": [0, 1.861E4, 0]
	             },
           	    {"nombre": "Egerea", 
	               "masa": 1.63E19, 
	               "posicion": [0, 3.85E11, 0], 
	               "velocidad": [0, 1.856E4, 0]
	             },
                    {"nombre": "Eunomia", 
	               "masa": 3.12E19, 
	               "posicion": [0, 3.96E11, 0], 
	               "velocidad": [0, 1.816E4, 0]
	             },
           	    {"nombre": "Juno", 
	               "masa": 2.672E19, 
	               "posicion": [0, 4.00E11, 0], 
	               "velocidad": [0, 1.793E4, 0]
	             },
           	    {"nombre": "Thishe", 
	               "masa": 1.83E19, 
	               "posicion": [0, 4.14E11, 0], 
	               "velocidad": [0, 1.778E4, 0]
	             },
           	    {"nombre": "Herculina", 
	               "masa": 2.29E19, 
	               "posicion": [0, 4.145E11, 0], 
	               "velocidad": [0, 1.765E4, 0]
	             },
                    {"nombre": "Ceres", 
	               "masa": 9.39E20, 
	               "posicion": [0, 4.15E11, 0], 
	               "velocidad": [0, 1.791E4, 0]
	             },
                    {"nombre": "Pallas", 
	               "masa": 2.112E20, 
	               "posicion": [0, 4.153E11, 0], 
	               "velocidad": [0, 1.765E4, 0]
	             },
           	    {"nombre": "Psyche", 
	               "masa": 2.27E19, 
	               "posicion": [0, 4.37E11, 0], 
	               "velocidad": [0, 1.734E4, 0]
	             },
           	    {"nombre": "Interamnia", 
	               "masa": 3.90E19, 
	               "posicion": [0, 4.58E11, 0], 
	               "velocidad": [0, 1.692E4, 0]
	             },
                    {"nombre": "Diotima", 
	               "masa": 1.60E19, 
	               "posicion": [0, 4.59E11, 0], 
	               "velocidad": [0, 1.701E4, 0]
	             },
                    {"nombre": "Europa", 
	               "masa": 3.27E19, 
	               "posicion": [0, 4.65E11, 0], 
	               "velocidad": [0, 1.687E4, 0]
	             },
           	    {"nombre": "Doris", 
	               "masa": 1.70E19, 
	               "posicion": [0, 4.66E11, 0], 
	               "velocidad": [0, 1.687E4, 0]
	             },
                    {"nombre": "Hygiea", 
	               "masa": 5.672E19, 
	               "posicion": [0, 4.70E11, 0], 
	               "velocidad": [0, 1.676E4, 0]
	             },
                    {"nombre": "Euphrosyne", 
	               "masa": 5.812E19, 
	               "posicion": [0, 4.72E11, 0], 
	               "velocidad": [0, 1.657E4, 0]
	             },
                    {"nombre": "Davida", 
	               "masa": 3.84E19, 
	               "posicion": [0, 4.74E11, 0], 
	               "velocidad": [0, 1.659E4, 0]
	             },
                    {"nombre": "Sylvia", 
	               "masa": 1.48E19, 
	               "posicion": [0, 5.22E11, 0], 
	               "velocidad": [0, 1.594E4, 0]
	             },
                    {"nombre": "Automedron", 
	               "masa": 1.40E18, 
	               "posicion": [0, 7.65E11, 0], 
	               "velocidad": [0, 1.317E4, 0]
	             },
           	    {"nombre": "Teucer", 
	               "masa": 1.402E18, 
	               "posicion": [0, 7.6533E11, 0], 
	               "velocidad": [0, 1.316E4, 0]
	             },
                    {"nombre": "Palamedes", 
	               "masa":8.102E17, 
	               "posicion": [0, 7.69E11, 0], 
	               "velocidad": [0, 1.312E4, 0]
	             },
                    {"nombre": "Telamon", 
	               "masa": 5.602E17, 
	               "posicion": [0, 7.74E11, 0], 
	               "velocidad": [0, 1.306E4, 0]
	             }, 
           	    {"nombre": "Neoptolemus", 
	               "masa": 3.90E17, 
	               "posicion": [0, 7.77E11, 0], 
	               "velocidad": [0, 1.307E4, 0]
	             },
                    {"nombre": "Makhaon", 
	               "masa": 1.602E18, 
	               "posicion": [0, 7.7745E11, 0], 
	               "velocidad": [0, 1.307E4, 0]
	             },
	            {"nombre": "Jupiter", 
                       "masa": 1.90E27, 
                       "posicion": [0, -7.78E11, 0], 
                       "velocidad": [0, 1.1307E4, 0]
                     },
		    {"nombre": "Hektor", 
	               "masa": 9.952E18, 
	               "posicion": [0, 7.8197E11, 0], 
	               "velocidad": [0, 1.303E4, 0]
	             },
                    {"nombre": "Talthybius", 
	               "masa": 3.40E17, 
	               "posicion": [0, 7.82E11, 0], 
	               "velocidad": [0, 1.302E4, 0]
	             },
           	    {"nombre": "Polypoites", 
	               "masa": 1.00E18, 
	               "posicion": [0, 7.87E11, 0], 
	               "velocidad": [0, 1.297E4, 0]
	             },
        	    {"nombre": "Ajax", 
	               "masa": 5.70E17, 
	               "posicion": [0, 7.94E11, 0], 
	               "velocidad": [0, 1.289E4, 0]
	             },
		    {"nombre": "Saturno", 
                       "masa": 5.682E26, 
                       "posicion": [0, 1.43E12, 0], 
                       "velocidad": [0, 9.69E3, 0]
                     },	
		    {"nombre": "Urano", 
                       "masa": 8.682E25, 
                       "posicion": [0, 2.88E12, 0], 
                       "velocidad": [0, 6.80E3, 0]
                     },
		    {"nombre": "Neptuno", 
                       "masa": 1.02E26, 
                       "posicion": [0, 4.50E12, 0], 
                       "velocidad": [0, 5.43E3, 0]
                     }],

    "delta_t": 86400,
    "steps": 36500,
    "intervalo":50,
    "tolerancia": 1.0E1000
}














		

			

                  	








                   
                  





